sensorid,startdt,enddt,location,type
0x40A265CE,2013-06-01 12:30:00,2025-01-01 12:00:00,top_floor,TEMP
0x408B7239,2000-01-01 12:00:00,2013-09-08 17:00:00,basement,TEMP
0x408B7239,2000-01-01 12:00:00,2013-09-08 17:00:00,basement,HUMID
0x408B7239,2013-09-08 17:00:00,2025-01-01 12:00:00,back_deck,TEMP
0x408B7239,2013-09-08 17:00:00,2025-01-01 12:00:00,back_deck,HUMID
0x40A265C1,2000-01-01 12:00:00,2025-01-01 12:00:00,ground_floor,TEMP
0x408B722D,2013-07-07 08:00:00,2025-01-01 12:00:00,mobile,TEMP
0x408B722D,2013-07-07 08:00:00,2025-01-01 12:00:00,mobile,HUMID
